\relax 
\providecommand \oddpage@label [2]{}
\@writefile{toc}{\contentsline {section}{\numberline {1}Introduction}{1}}
\@writefile{toc}{\contentsline {section}{\numberline {2}Approximate Control Flow Graph}{1}}
\@writefile{toc}{\contentsline {section}{\numberline {3}Counters Values to I-ACFG}{2}}
\@writefile{toc}{\contentsline {section}{\numberline {4}Rules}{2}}
\@writefile{toc}{\contentsline {subsection}{\numberline {4.1}Analytical}{2}}
\@writefile{toc}{\contentsline {subsection}{\numberline {4.2}Machine Learning}{2}}
\@writefile{toc}{\contentsline {section}{\numberline {5}MIPS 5-stage pipeline}{2}}
\@writefile{toc}{\contentsline {section}{\numberline {6}Intel x86}{3}}
\@writefile{toc}{\contentsline {section}{\numberline {7}Gathering Counter Data}{3}}
\@writefile{toc}{\contentsline {subsection}{\numberline {7.1}MIPS 5-stage pipeline}{3}}
\@writefile{toc}{\contentsline {subsection}{\numberline {7.2}Intel x86}{3}}
\@writefile{toc}{\contentsline {section}{\numberline {8}Results}{3}}
\newlabel{accuracy_eq}{{3}{3}}
\newlabel{percision_eq}{{4}{3}}
\@writefile{toc}{\contentsline {subsection}{\numberline {8.1}MIPS 5-stage pipeline}{3}}
\@writefile{toc}{\contentsline {subsection}{\numberline {8.2}Intel x86}{3}}
\@writefile{toc}{\contentsline {section}{\numberline {9}Related Work}{3}}
\@writefile{toc}{\contentsline {section}{\numberline {10}Conclusion}{3}}
